{
  "LogSettings": {
    "Targets": [
      {
        "Type": "database",
        "Server": "sql",
        "MinimumLogLevel": "Error", //Fatal = 5,Error = 4, Warn = 3,Info = 2, Debug = 1,Trace = 0, All =-1
        "Connectionstring": "Data Source=localhost\\SQLEXPRESS;Initial Catalog=Logs;Trusted_Connection=Yes;Connect Timeout=15;"
      },
      {
        "Type": "file",
        "MinimumLogLevel": "Trace", //Fatal = 5,Error = 4, Warn = 3,Info = 2, Debug = 1,Trace = 0, All =-1
      }
    ]
  }
}
